rtl/mips_cpu_bus_tb.vcd
$date
	Fri Dec 18 13:24:28 2020
$end
$version
	Icarus Verilog
$end
$timescale
	10ps
$end
$scope module mips_cpu_bus_tb $end
$var wire 1 ! waitrequest $end
$var wire 32 " writedata [31:0] $end
$var wire 1 # write $end
$var wire 32 $ register_v0 [31:0] $end
$var wire 32 % readdata [31:0] $end
$var wire 1 & read $end
$var wire 4 ' byteenable [3:0] $end
$var wire 32 ( address [31:0] $end
$var wire 1 ) active $end
$var reg 1 * clk $end
$var reg 1 + reset $end
$scope module cpuInst $end
$var wire 1 * clk $end
$var wire 32 , register_v0 [31:0] $end
$var wire 1 + reset $end
$var wire 1 ! waitrequest $end
$var wire 5 - shift [4:0] $end
$var wire 5 . rt [4:0] $end
$var wire 5 / rs [4:0] $end
$var wire 32 0 readdata [31:0] $end
$var wire 5 1 rd [4:0] $end
$var wire 32 2 pc_increment [31:0] $end
$var wire 6 3 instr_opcode [5:0] $end
$var wire 26 4 instr_index [25:0] $end
$var wire 16 5 instr_imm [15:0] $end
$var wire 6 6 instr_function [5:0] $end
$var wire 32 7 instr [31:0] $end
$var wire 2 8 alignment [1:0] $end
$var wire 32 9 address_calc [31:0] $end
$var reg 32 : HI [31:0] $end
$var reg 32 ; LO [31:0] $end
$var reg 1 ) active $end
$var reg 32 < address [31:0] $end
$var reg 4 = byteenable [3:0] $end
$var reg 1 > delay $end
$var reg 32 ? ir [31:0] $end
$var reg 1 @ mem_access $end
$var reg 32 A pc [31:0] $end
$var reg 32 B pc_jmp [31:0] $end
$var reg 1 & read $end
$var reg 3 C state [2:0] $end
$var reg 1 # write $end
$var reg 32 D writedata [31:0] $end
$var integer 32 E i [31:0] $end
$upscope $end
$scope module ramInst $end
$var wire 32 F address [31:0] $end
$var wire 4 G byteenable [3:0] $end
$var wire 1 * clk $end
$var wire 8 H r_data0 [7:0] $end
$var wire 8 I r_data1 [7:0] $end
$var wire 8 J r_data2 [7:0] $end
$var wire 8 K r_data3 [7:0] $end
$var wire 1 & read $end
$var wire 1 ! waitrequest $end
$var wire 1 # write $end
$var wire 32 L writedata [31:0] $end
$var wire 8 M w_data3 [7:0] $end
$var wire 8 N w_data2 [7:0] $end
$var wire 8 O w_data1 [7:0] $end
$var wire 8 P w_data0 [7:0] $end
$var wire 32 Q r_data [31:0] $end
$var wire 32 R address_relative [31:0] $end
$var reg 32 S readdata [31:0] $end
$scope begin $unm_blk_102 $end
$var integer 32 T i [31:0] $end
$upscope $end
$upscope $end
$upscope $end
$enddefinitions $end
#0
$dumpvars
b1111111111111111 T
bx S
bx R
bx Q
bx P
bx O
bx N
bx M
bx L
bx K
bx J
bx I
bx H
bx G
bx F
b100000 E
bx D
b111 C
bx B
bx A
x@
bx ?
0>
bx =
bx <
bx ;
bx :
bx 9
bx 8
bx 7
bx 6
bx 5
bx 4
bx 3
bx 2
bx 1
bx 0
bx /
bx .
bx -
b0 ,
0+
0*
0)
bx (
bx '
x&
bx %
b0 $
x#
bx "
0!
$end
#1000
1*
#2000
1+
0*
#3000
b111100 K
b11 J
b10111111 I
b11000000 H
b111100000000111011111111000000 Q
b0 R
b10111111110000000000000000000000 (
b10111111110000000000000000000000 <
b10111111110000000000000000000000 F
0#
1&
b1111 '
b1111 =
b1111 G
b10111111110000000000000000000100 2
b10111111110000000000000000000000 A
1)
b0 C
b100000 E
1*
#4000
0+
0*
#5000
b0 K
b0 J
b0 I
b0 H
b111100 M
b11 N
b10111111 O
b11000000 P
b0 8
b1111 3
b1011111111000000 9
b0 /
b11 .
b10111 1
b11111 -
b0 6
b1011111111000000 5
b111011111111000000 4
b0 '
b0 =
b0 G
0&
b111100000000111011111111000000 7
b1 C
b111100000000111011111111000000 %
b111100000000111011111111000000 0
b111100000000111011111111000000 S
1*
#6000
0*
#7000
b10001100 K
b1101001 J
b0 I
b101000 H
bx M
bx N
bx O
bx P
b10001100011010010000000000101000 Q
b1 R
b10111111110000000000000000000100 (
b10111111110000000000000000000100 <
b10111111110000000000000000000100 F
1&
b1111 '
b1111 =
b1111 G
b10111111110000000000000000001000 2
b10111111110000000000000000000100 A
b0 C
b111100000000111011111111000000 ?
1*
#8000
0*
#9000
b11000000 Q
b0 K
b0 J
b11000000 H
bx M
bx N
bx O
bx P
b1010 R
b10111111110000000000000000101000 (
b10111111110000000000000000101000 <
b10111111110000000000000000101000 F
b100011 3
b11 /
b1001 .
b0 1
b0 -
b101000 6
b10111111110000000000000000101000 9
b101000 5
b11010010000000000101000 4
b1111 '
b1111 =
b1111 G
1&
b10001100011010010000000000101000 7
b1 C
b10001100011010010000000000101000 %
b10001100011010010000000000101000 0
b10001100011010010000000000101000 S
1*
#10000
0*
#11000
b11000000 %
b11000000 0
b11000000 S
b10111111110000000000000000001100 2
b10111111110000000000000000001000 A
b10 C
b10001100011010010000000000101000 ?
1*
#12000
0*
#13000
b10001100 K
b1101010 J
b1000 H
b10001100011010100000000000001000 Q
b10 R
b10111111110000000000000000001000 (
b10111111110000000000000000001000 <
b10111111110000000000000000001000 F
b0 C
1*
#14000
0*
#15000
b10001100 K
b1101010 J
b1000 H
b10001100011010100000000000001000 Q
b1010 .
b1000 6
b10111111110000000000000000001000 9
b1000 5
b11010100000000000001000 4
b10 R
b10111111110000000000000000001000 (
b10111111110000000000000000001000 <
b10111111110000000000000000001000 F
b10001100011010100000000000001000 7
b10001100011010100000000000001000 %
b10001100011010100000000000001000 0
b10001100011010100000000000001000 S
b1 C
1*
#16000
0*
#17000
b10111111110000000000000000010000 2
b10111111110000000000000000001100 A
b10 C
b10001100011010100000000000001000 ?
1*
#18000
0*
#19000
b10101101 K
b1001001 J
b0 H
b10101101010010010000000000000000 Q
b11 R
b10111111110000000000000000001100 (
b10111111110000000000000000001100 <
b10111111110000000000000000001100 F
b0 C
1*
#20000
0*
#21000
bx I
b0 M
b0 N
b0 O
b11000000 P
bx K
bx J
bx H
b11000000 "
b11000000 D
b11000000 L
0&
1#
bx Q
b101011 3
b1010 /
b1001 .
b0 6
b10001100011010100000000000001000 9
b0 5
b1010010010000000000000000 4
b110011001010101000000000000010 R
b10001100011010100000000000001000 (
b10001100011010100000000000001000 <
b10001100011010100000000000001000 F
b10101101010010010000000000000000 7
b1 C
b10101101010010010000000000000000 %
b10101101010010010000000000000000 0
b10101101010010010000000000000000 S
1*
#22000
0*
#23000
b0 K
b0 J
b0 I
b0 H
b0 Q
b100 R
b10111111110000000000000000010000 (
b10111111110000000000000000010000 <
b10111111110000000000000000010000 F
0#
1&
1@
b10111111110000000000000000010100 2
b10111111110000000000000000010000 A
b0 C
b10101101010010010000000000000000 ?
1*
#24000
0*
#25000
b0 M
b0 N
b0 O
b0 P
b0 '
b0 =
b0 G
b0 Q
b0 3
b0 9
b0 /
b0 .
b0 4
b100 R
b10111111110000000000000000010000 (
b10111111110000000000000000010000 <
b10111111110000000000000000010000 F
0&
0#
b0 7
b1 C
b0 %
b0 0
b0 S
1*
#26000
0*
#27000
b11000000 P
b101 R
b10111111110000000000000000010100 (
b10111111110000000000000000010100 <
b10111111110000000000000000010100 F
1&
b1111 '
b1111 =
b1111 G
b10111111110000000000000000011000 2
b10111111110000000000000000010100 A
b0 C
b0 ?
1*
#28000
0*
#29000
b0 P
b0 '
b0 =
b0 G
0&
b1 C
1*
#30000
0*
#31000
b11000000 P
b110 R
b10111111110000000000000000011000 (
b10111111110000000000000000011000 <
b10111111110000000000000000011000 F
1&
b1111 '
b1111 =
b1111 G
b10111111110000000000000000011100 2
b10111111110000000000000000011000 A
b0 C
1*
#32000
0*
#33000
b0 P
b0 '
b0 =
b0 G
0&
b1 C
1*
#34000
0*
#35000
b11000000 P
b111 R
b10111111110000000000000000011100 (
b10111111110000000000000000011100 <
b10111111110000000000000000011100 F
1&
b1111 '
b1111 =
b1111 G
b10111111110000000000000000100000 2
b10111111110000000000000000011100 A
b0 C
1*
#36000
0*
#37000
b0 P
b0 '
b0 =
b0 G
0&
b1 C
1*
#38000
0*
#39000
b11000000 P
b1000 R
b10111111110000000000000000100000 (
b10111111110000000000000000100000 <
b10111111110000000000000000100000 F
1&
b1111 '
b1111 =
b1111 G
b10111111110000000000000000100100 2
b10111111110000000000000000100000 A
b0 C
1*
#40000
0*
#41000
b0 P
b0 '
b0 =
b0 G
0&
b1 C
1*
#42000
0*
#43000
b11000000 P
b1001 R
b10111111110000000000000000100100 (
b10111111110000000000000000100100 <
b10111111110000000000000000100100 F
1&
b1111 '
b1111 =
b1111 G
b10111111110000000000000000101000 2
b10111111110000000000000000100100 A
b0 C
1*
#44000
0*
#45000
b0 P
b0 '
b0 =
b0 G
0&
b1 C
1*
#46000
0*
#47000
b11000000 H
b11000000 P
b11000000 Q
b1010 R
b10111111110000000000000000101000 (
b10111111110000000000000000101000 <
b10111111110000000000000000101000 F
1&
b1111 '
b1111 =
b1111 G
b10111111110000000000000000101100 2
b10111111110000000000000000101000 A
b0 C
1*
#48000
0*
#49000
b0 H
b11 -
b11000000 9
b11000000 5
b11000000 4
b0 '
b0 =
b0 G
0&
b11000000 7
b1 C
b11000000 %
b11000000 0
b11000000 S
1*
#50000
0*
#51000
b101 H
b101 Q
b1011 R
b10111111110000000000000000101100 (
b10111111110000000000000000101100 <
b10111111110000000000000000101100 F
1&
b1111 '
b1111 =
b1111 G
b10111111110000000000000000110000 2
b10111111110000000000000000101100 A
b0 C
b11000000 ?
1*
#52000
0*
#53000
b0 H
b101 P
b1 8
b0 -
b101 6
b101 9
b101 5
b101 4
b0 '
b0 =
b0 G
0&
b101 7
b1 C
b101 %
b101 0
b101 S
1*
#54000
0*
#55000
b0 H
b11000000 P
b0 Q
b1100 R
b10111111110000000000000000110000 (
b10111111110000000000000000110000 <
b10111111110000000000000000110000 F
1&
b1111 '
b1111 =
b1111 G
b10111111110000000000000000110100 2
b10111111110000000000000000110000 A
b0 C
b101 ?
1*
#56000
0*
#57000
b0 P
b0 8
b0 6
b0 9
b0 5
b0 4
b0 '
b0 =
b0 G
0&
b0 7
b1 C
b0 %
b0 0
b0 S
1*
#58000
0*
#59000
b11000000 P
b1101 R
b10111111110000000000000000110100 (
b10111111110000000000000000110100 <
b10111111110000000000000000110100 F
1&
b1111 '
b1111 =
b1111 G
b10111111110000000000000000111000 2
b10111111110000000000000000110100 A
b0 C
b0 ?
1*
#60000
0*
#61000
b0 P
b0 '
b0 =
b0 G
0&
b1 C
1*
#62000
0*
#63000
b11000000 P
b1110 R
b10111111110000000000000000111000 (
b10111111110000000000000000111000 <
b10111111110000000000000000111000 F
1&
b1111 '
b1111 =
b1111 G
b10111111110000000000000000111100 2
b10111111110000000000000000111000 A
b0 C
1*
#64000
0*
#65000
b0 P
b0 '
b0 =
b0 G
0&
b1 C
1*
#66000
0*
#67000
b11000000 P
b1111 R
b10111111110000000000000000111100 (
b10111111110000000000000000111100 <
b10111111110000000000000000111100 F
1&
b1111 '
b1111 =
b1111 G
b10111111110000000000000001000000 2
b10111111110000000000000000111100 A
b0 C
1*
#68000
0*
#69000
b0 P
b0 '
b0 =
b0 G
0&
b1 C
1*
#70000
0*
#71000
b11000000 P
b10000 R
b10111111110000000000000001000000 (
b10111111110000000000000001000000 <
b10111111110000000000000001000000 F
1&
b1111 '
b1111 =
b1111 G
b10111111110000000000000001000100 2
b10111111110000000000000001000000 A
b0 C
1*
#72000
0*
#73000
b0 P
b0 '
b0 =
b0 G
0&
b1 C
1*
#74000
0*
#75000
b11000000 P
b10001 R
b10111111110000000000000001000100 (
b10111111110000000000000001000100 <
b10111111110000000000000001000100 F
1&
b1111 '
b1111 =
b1111 G
b10111111110000000000000001001000 2
b10111111110000000000000001000100 A
b0 C
1*
#76000
0*
#77000
b0 P
b0 '
b0 =
b0 G
0&
b1 C
1*
#78000
0*
#79000
b11000000 P
b10010 R
b10111111110000000000000001001000 (
b10111111110000000000000001001000 <
b10111111110000000000000001001000 F
1&
b1111 '
b1111 =
b1111 G
b10111111110000000000000001001100 2
b10111111110000000000000001001000 A
b0 C
1*
#80000
0*
#81000
b0 P
b0 '
b0 =
b0 G
0&
b1 C
1*
#82000
0*
#83000
b11000000 P
b10011 R
b10111111110000000000000001001100 (
b10111111110000000000000001001100 <
b10111111110000000000000001001100 F
1&
b1111 '
b1111 =
b1111 G
b10111111110000000000000001010000 2
b10111111110000000000000001001100 A
b0 C
1*
#84000
0*
#85000
b0 P
b0 '
b0 =
b0 G
0&
b1 C
1*
#86000
0*
#87000
b11000000 P
b10100 R
b10111111110000000000000001010000 (
b10111111110000000000000001010000 <
b10111111110000000000000001010000 F
1&
b1111 '
b1111 =
b1111 G
b10111111110000000000000001010100 2
b10111111110000000000000001010000 A
b0 C
1*
#88000
0*
#89000
b0 P
b0 '
b0 =
b0 G
0&
b1 C
1*
#90000
0*
#91000
b11000000 P
b10101 R
b10111111110000000000000001010100 (
b10111111110000000000000001010100 <
b10111111110000000000000001010100 F
1&
b1111 '
b1111 =
b1111 G
b10111111110000000000000001011000 2
b10111111110000000000000001010100 A
b0 C
1*
#92000
0*
#93000
b0 P
b0 '
b0 =
b0 G
0&
b1 C
1*
#94000
0*
#95000
b11000000 P
b10110 R
b10111111110000000000000001011000 (
b10111111110000000000000001011000 <
b10111111110000000000000001011000 F
1&
b1111 '
b1111 =
b1111 G
b10111111110000000000000001011100 2
b10111111110000000000000001011000 A
b0 C
1*
#96000
0*
#97000
b0 P
b0 '
b0 =
b0 G
0&
b1 C
1*
#98000
0*
#99000
b11000000 P
b10111 R
b10111111110000000000000001011100 (
b10111111110000000000000001011100 <
b10111111110000000000000001011100 F
1&
b1111 '
b1111 =
b1111 G
b10111111110000000000000001100000 2
b10111111110000000000000001011100 A
b0 C
1*
#100000
0*
#101000
b0 P
b0 '
b0 =
b0 G
0&
b1 C
1*
#102000
0*
#103000
b11000000 P
b11000 R
b10111111110000000000000001100000 (
b10111111110000000000000001100000 <
b10111111110000000000000001100000 F
1&
b1111 '
b1111 =
b1111 G
b10111111110000000000000001100100 2
b10111111110000000000000001100000 A
b0 C
1*
#104000
0*
#105000
b0 P
b0 '
b0 =
b0 G
0&
b1 C
1*
#106000
0*
#107000
b11000000 P
b11001 R
b10111111110000000000000001100100 (
b10111111110000000000000001100100 <
b10111111110000000000000001100100 F
1&
b1111 '
b1111 =
b1111 G
b10111111110000000000000001101000 2
b10111111110000000000000001100100 A
b0 C
1*
#108000
0*
#109000
b0 P
b0 '
b0 =
b0 G
0&
b1 C
1*
#110000
0*
#111000
b11000000 P
b11010 R
b10111111110000000000000001101000 (
b10111111110000000000000001101000 <
b10111111110000000000000001101000 F
1&
b1111 '
b1111 =
b1111 G
b10111111110000000000000001101100 2
b10111111110000000000000001101000 A
b0 C
1*
#112000
0*
#113000
b0 P
b0 '
b0 =
b0 G
0&
b1 C
1*
#114000
0*
#115000
b11000000 P
b11011 R
b10111111110000000000000001101100 (
b10111111110000000000000001101100 <
b10111111110000000000000001101100 F
1&
b1111 '
b1111 =
b1111 G
b10111111110000000000000001110000 2
b10111111110000000000000001101100 A
b0 C
1*
#116000
0*
#117000
b0 P
b0 '
b0 =
b0 G
0&
b1 C
1*
#118000
0*
#119000
b11000000 P
b11100 R
b10111111110000000000000001110000 (
b10111111110000000000000001110000 <
b10111111110000000000000001110000 F
1&
b1111 '
b1111 =
b1111 G
b10111111110000000000000001110100 2
b10111111110000000000000001110000 A
b0 C
1*
#120000
0*
#121000
b0 P
b0 '
b0 =
b0 G
0&
b1 C
1*
#122000
0*
#123000
b11000000 P
b11101 R
b10111111110000000000000001110100 (
b10111111110000000000000001110100 <
b10111111110000000000000001110100 F
1&
b1111 '
b1111 =
b1111 G
b10111111110000000000000001111000 2
b10111111110000000000000001110100 A
b0 C
1*
#124000
0*
#125000
b0 P
b0 '
b0 =
b0 G
0&
b1 C
1*
#126000
0*
#127000
b11000000 P
b11110 R
b10111111110000000000000001111000 (
b10111111110000000000000001111000 <
b10111111110000000000000001111000 F
1&
b1111 '
b1111 =
b1111 G
b10111111110000000000000001111100 2
b10111111110000000000000001111000 A
b0 C
1*
#128000
0*
#129000
b0 P
b0 '
b0 =
b0 G
0&
b1 C
1*
#130000
0*
#131000
b11000000 P
b11111 R
b10111111110000000000000001111100 (
b10111111110000000000000001111100 <
b10111111110000000000000001111100 F
1&
b1111 '
b1111 =
b1111 G
b10111111110000000000000010000000 2
b10111111110000000000000001111100 A
b0 C
1*
#132000
0*
#133000
b0 P
b0 '
b0 =
b0 G
0&
b1 C
1*
#134000
0*
#135000
b11000000 P
b100000 R
b10111111110000000000000010000000 (
b10111111110000000000000010000000 <
b10111111110000000000000010000000 F
1&
b1111 '
b1111 =
b1111 G
b10111111110000000000000010000100 2
b10111111110000000000000010000000 A
b0 C
1*
#136000
0*
#137000
b0 P
b0 '
b0 =
b0 G
0&
b1 C
1*
#138000
0*
#139000
b11000000 P
b100001 R
b10111111110000000000000010000100 (
b10111111110000000000000010000100 <
b10111111110000000000000010000100 F
1&
b1111 '
b1111 =
b1111 G
b10111111110000000000000010001000 2
b10111111110000000000000010000100 A
b0 C
1*
#140000
0*
#141000
b0 P
b0 '
b0 =
b0 G
0&
b1 C
1*
#142000
0*
#143000
b11000000 P
b100010 R
b10111111110000000000000010001000 (
b10111111110000000000000010001000 <
b10111111110000000000000010001000 F
1&
b1111 '
b1111 =
b1111 G
b10111111110000000000000010001100 2
b10111111110000000000000010001000 A
b0 C
1*
#144000
0*
#145000
b0 P
b0 '
b0 =
b0 G
0&
b1 C
1*
#146000
0*
#147000
b11000000 P
b100011 R
b10111111110000000000000010001100 (
b10111111110000000000000010001100 <
b10111111110000000000000010001100 F
1&
b1111 '
b1111 =
b1111 G
b10111111110000000000000010010000 2
b10111111110000000000000010001100 A
b0 C
1*
#148000
0*
#149000
b0 P
b0 '
b0 =
b0 G
0&
b1 C
1*
#150000
0*
#151000
b11000000 P
b100100 R
b10111111110000000000000010010000 (
b10111111110000000000000010010000 <
b10111111110000000000000010010000 F
1&
b1111 '
b1111 =
b1111 G
b10111111110000000000000010010100 2
b10111111110000000000000010010000 A
b0 C
1*
#152000
0*
#153000
b0 P
b0 '
b0 =
b0 G
0&
b1 C
1*
#154000
0*
#155000
b11000000 P
b100101 R
b10111111110000000000000010010100 (
b10111111110000000000000010010100 <
b10111111110000000000000010010100 F
1&
b1111 '
b1111 =
b1111 G
b10111111110000000000000010011000 2
b10111111110000000000000010010100 A
b0 C
1*
#156000
0*
#157000
b0 P
b0 '
b0 =
b0 G
0&
b1 C
1*
#158000
0*
#159000
b11000000 P
b100110 R
b10111111110000000000000010011000 (
b10111111110000000000000010011000 <
b10111111110000000000000010011000 F
1&
b1111 '
b1111 =
b1111 G
b10111111110000000000000010011100 2
b10111111110000000000000010011000 A
b0 C
1*
#160000
0*
#161000
b0 P
b0 '
b0 =
b0 G
0&
b1 C
1*
#162000
0*
#163000
b11000000 P
b100111 R
b10111111110000000000000010011100 (
b10111111110000000000000010011100 <
b10111111110000000000000010011100 F
1&
b1111 '
b1111 =
b1111 G
b10111111110000000000000010100000 2
b10111111110000000000000010011100 A
b0 C
1*
#164000
0*
#165000
b0 P
b0 '
b0 =
b0 G
0&
b1 C
1*
#166000
0*
#167000
b11000000 P
b101000 R
b10111111110000000000000010100000 (
b10111111110000000000000010100000 <
b10111111110000000000000010100000 F
1&
b1111 '
b1111 =
b1111 G
b10111111110000000000000010100100 2
b10111111110000000000000010100000 A
b0 C
1*
#168000
0*
#169000
b0 P
b0 '
b0 =
b0 G
0&
b1 C
1*
#170000
0*
#171000
b11000000 P
b101001 R
b10111111110000000000000010100100 (
b10111111110000000000000010100100 <
b10111111110000000000000010100100 F
1&
b1111 '
b1111 =
b1111 G
b10111111110000000000000010101000 2
b10111111110000000000000010100100 A
b0 C
1*
#172000
0*
#173000
b0 P
b0 '
b0 =
b0 G
0&
b1 C
1*
#174000
0*
#175000
b11000000 P
b101010 R
b10111111110000000000000010101000 (
b10111111110000000000000010101000 <
b10111111110000000000000010101000 F
1&
b1111 '
b1111 =
b1111 G
b10111111110000000000000010101100 2
b10111111110000000000000010101000 A
b0 C
1*
#176000
0*
#177000
b0 P
b0 '
b0 =
b0 G
0&
b1 C
1*
#178000
0*
#179000
b11000000 P
b101011 R
b10111111110000000000000010101100 (
b10111111110000000000000010101100 <
b10111111110000000000000010101100 F
1&
b1111 '
b1111 =
b1111 G
b10111111110000000000000010110000 2
b10111111110000000000000010101100 A
b0 C
1*
#180000
0*
#181000
b0 P
b0 '
b0 =
b0 G
0&
b1 C
1*
#182000
0*
#183000
b11000000 P
b101100 R
b10111111110000000000000010110000 (
b10111111110000000000000010110000 <
b10111111110000000000000010110000 F
1&
b1111 '
b1111 =
b1111 G
b10111111110000000000000010110100 2
b10111111110000000000000010110000 A
b0 C
1*
#184000
0*
#185000
b0 P
b0 '
b0 =
b0 G
0&
b1 C
1*
#186000
0*
#187000
b11000000 P
b101101 R
b10111111110000000000000010110100 (
b10111111110000000000000010110100 <
b10111111110000000000000010110100 F
1&
b1111 '
b1111 =
b1111 G
b10111111110000000000000010111000 2
b10111111110000000000000010110100 A
b0 C
1*
#188000
0*
#189000
b0 P
b0 '
b0 =
b0 G
0&
b1 C
1*
#190000
0*
#191000
b11000000 P
b101110 R
b10111111110000000000000010111000 (
b10111111110000000000000010111000 <
b10111111110000000000000010111000 F
1&
b1111 '
b1111 =
b1111 G
b10111111110000000000000010111100 2
b10111111110000000000000010111000 A
b0 C
1*
#192000
0*
#193000
b0 P
b0 '
b0 =
b0 G
0&
b1 C
1*
#194000
0*
#195000
b11000000 P
b101111 R
b10111111110000000000000010111100 (
b10111111110000000000000010111100 <
b10111111110000000000000010111100 F
1&
b1111 '
b1111 =
b1111 G
b10111111110000000000000011000000 2
b10111111110000000000000010111100 A
b0 C
1*
#196000
0*
#197000
b0 P
b0 '
b0 =
b0 G
0&
b1 C
1*
#198000
0*
#199000
b11000000 P
b110000 R
b10111111110000000000000011000000 (
b10111111110000000000000011000000 <
b10111111110000000000000011000000 F
1&
b1111 '
b1111 =
b1111 G
b10111111110000000000000011000100 2
b10111111110000000000000011000000 A
b0 C
1*
#200000
0*
#201000
b0 P
b0 '
b0 =
b0 G
0&
b1 C
1*
#202000
0*
#203000
b11000000 P
b110001 R
b10111111110000000000000011000100 (
b10111111110000000000000011000100 <
b10111111110000000000000011000100 F
1&
b1111 '
b1111 =
b1111 G
b10111111110000000000000011001000 2
b10111111110000000000000011000100 A
b0 C
1*
#204000
0*
#205000
b0 P
b0 '
b0 =
b0 G
0&
b1 C
1*
#206000
0*
#207000
b11000000 P
b110010 R
b10111111110000000000000011001000 (
b10111111110000000000000011001000 <
b10111111110000000000000011001000 F
1&
b1111 '
b1111 =
b1111 G
b10111111110000000000000011001100 2
b10111111110000000000000011001000 A
b0 C
1*
#208000
0*
#209000
b0 P
b0 '
b0 =
b0 G
0&
b1 C
1*
#210000
0*
#211000
b11000000 P
b110011 R
b10111111110000000000000011001100 (
b10111111110000000000000011001100 <
b10111111110000000000000011001100 F
1&
b1111 '
b1111 =
b1111 G
b10111111110000000000000011010000 2
b10111111110000000000000011001100 A
b0 C
1*
#212000
0*
#213000
b0 P
b0 '
b0 =
b0 G
0&
b1 C
1*
#214000
0*
#215000
b11000000 P
b110100 R
b10111111110000000000000011010000 (
b10111111110000000000000011010000 <
b10111111110000000000000011010000 F
1&
b1111 '
b1111 =
b1111 G
b10111111110000000000000011010100 2
b10111111110000000000000011010000 A
b0 C
1*
#216000
0*
#217000
b0 P
b0 '
b0 =
b0 G
0&
b1 C
1*
#218000
0*
#219000
b11000000 P
b110101 R
b10111111110000000000000011010100 (
b10111111110000000000000011010100 <
b10111111110000000000000011010100 F
1&
b1111 '
b1111 =
b1111 G
b10111111110000000000000011011000 2
b10111111110000000000000011010100 A
b0 C
1*
#220000
0*
#221000
b0 P
b0 '
b0 =
b0 G
0&
b1 C
1*
#222000
0*
#223000
b11000000 P
b110110 R
b10111111110000000000000011011000 (
b10111111110000000000000011011000 <
b10111111110000000000000011011000 F
1&
b1111 '
b1111 =
b1111 G
b10111111110000000000000011011100 2
b10111111110000000000000011011000 A
b0 C
1*
#224000
0*
#225000
b0 P
b0 '
b0 =
b0 G
0&
b1 C
1*
#226000
0*
#227000
b11000000 P
b110111 R
b10111111110000000000000011011100 (
b10111111110000000000000011011100 <
b10111111110000000000000011011100 F
1&
b1111 '
b1111 =
b1111 G
b10111111110000000000000011100000 2
b10111111110000000000000011011100 A
b0 C
1*
#228000
0*
#229000
b0 P
b0 '
b0 =
b0 G
0&
b1 C
1*
#230000
0*
#231000
b11000000 P
b111000 R
b10111111110000000000000011100000 (
b10111111110000000000000011100000 <
b10111111110000000000000011100000 F
1&
b1111 '
b1111 =
b1111 G
b10111111110000000000000011100100 2
b10111111110000000000000011100000 A
b0 C
1*
#232000
0*
#233000
b0 P
b0 '
b0 =
b0 G
0&
b1 C
1*
#234000
0*
#235000
b11000000 P
b111001 R
b10111111110000000000000011100100 (
b10111111110000000000000011100100 <
b10111111110000000000000011100100 F
1&
b1111 '
b1111 =
b1111 G
b10111111110000000000000011101000 2
b10111111110000000000000011100100 A
b0 C
1*
#236000
0*
#237000
b0 P
b0 '
b0 =
b0 G
0&
b1 C
1*
#238000
0*
#239000
b11000000 P
b111010 R
b10111111110000000000000011101000 (
b10111111110000000000000011101000 <
b10111111110000000000000011101000 F
1&
b1111 '
b1111 =
b1111 G
b10111111110000000000000011101100 2
b10111111110000000000000011101000 A
b0 C
1*
#240000
0*
#241000
b0 P
b0 '
b0 =
b0 G
0&
b1 C
1*
#242000
0*
#243000
b11000000 P
b111011 R
b10111111110000000000000011101100 (
b10111111110000000000000011101100 <
b10111111110000000000000011101100 F
1&
b1111 '
b1111 =
b1111 G
b10111111110000000000000011110000 2
b10111111110000000000000011101100 A
b0 C
1*
#244000
0*
#245000
b0 P
b0 '
b0 =
b0 G
0&
b1 C
1*
#246000
0*
#247000
b11000000 P
b111100 R
b10111111110000000000000011110000 (
b10111111110000000000000011110000 <
b10111111110000000000000011110000 F
1&
b1111 '
b1111 =
b1111 G
b10111111110000000000000011110100 2
b10111111110000000000000011110000 A
b0 C
1*
#248000
0*
#249000
b0 P
b0 '
b0 =
b0 G
0&
b1 C
1*
#250000
0*
#251000
b11000000 P
b111101 R
b10111111110000000000000011110100 (
b10111111110000000000000011110100 <
b10111111110000000000000011110100 F
1&
b1111 '
b1111 =
b1111 G
b10111111110000000000000011111000 2
b10111111110000000000000011110100 A
b0 C
1*
#252000
0*
#253000
b0 P
b0 '
b0 =
b0 G
0&
b1 C
1*
#254000
0*
#255000
b11000000 P
b111110 R
b10111111110000000000000011111000 (
b10111111110000000000000011111000 <
b10111111110000000000000011111000 F
1&
b1111 '
b1111 =
b1111 G
b10111111110000000000000011111100 2
b10111111110000000000000011111000 A
b0 C
1*
#256000
0*
#257000
b0 P
b0 '
b0 =
b0 G
0&
b1 C
1*
#258000
0*
#259000
b11000000 P
b111111 R
b10111111110000000000000011111100 (
b10111111110000000000000011111100 <
b10111111110000000000000011111100 F
1&
b1111 '
b1111 =
b1111 G
b10111111110000000000000100000000 2
b10111111110000000000000011111100 A
b0 C
1*
#260000
0*
#261000
b0 P
b0 '
b0 =
b0 G
0&
b1 C
1*
#262000
0*
#263000
b11000000 P
b1000000 R
b10111111110000000000000100000000 (
b10111111110000000000000100000000 <
b10111111110000000000000100000000 F
1&
b1111 '
b1111 =
b1111 G
b10111111110000000000000100000100 2
b10111111110000000000000100000000 A
b0 C
1*
#264000
0*
#265000
b0 P
b0 '
b0 =
b0 G
0&
b1 C
1*
#266000
0*
#267000
b11000000 P
b1000001 R
b10111111110000000000000100000100 (
b10111111110000000000000100000100 <
b10111111110000000000000100000100 F
1&
b1111 '
b1111 =
b1111 G
b10111111110000000000000100001000 2
b10111111110000000000000100000100 A
b0 C
1*
#268000
0*
#269000
b0 P
b0 '
b0 =
b0 G
0&
b1 C
1*
#270000
0*
#271000
b11000000 P
b1000010 R
b10111111110000000000000100001000 (
b10111111110000000000000100001000 <
b10111111110000000000000100001000 F
1&
b1111 '
b1111 =
b1111 G
b10111111110000000000000100001100 2
b10111111110000000000000100001000 A
b0 C
1*
#272000
0*
#273000
b0 P
b0 '
b0 =
b0 G
0&
b1 C
1*
#274000
0*
#275000
b11000000 P
b1000011 R
b10111111110000000000000100001100 (
b10111111110000000000000100001100 <
b10111111110000000000000100001100 F
1&
b1111 '
b1111 =
b1111 G
b10111111110000000000000100010000 2
b10111111110000000000000100001100 A
b0 C
1*
#276000
0*
#277000
b0 P
b0 '
b0 =
b0 G
0&
b1 C
1*
#278000
0*
#279000
b11000000 P
b1000100 R
b10111111110000000000000100010000 (
b10111111110000000000000100010000 <
b10111111110000000000000100010000 F
1&
b1111 '
b1111 =
b1111 G
b10111111110000000000000100010100 2
b10111111110000000000000100010000 A
b0 C
1*
#280000
0*
#281000
b0 P
b0 '
b0 =
b0 G
0&
b1 C
1*
#282000
0*
#283000
b11000000 P
b1000101 R
b10111111110000000000000100010100 (
b10111111110000000000000100010100 <
b10111111110000000000000100010100 F
1&
b1111 '
b1111 =
b1111 G
b10111111110000000000000100011000 2
b10111111110000000000000100010100 A
b0 C
1*
#284000
0*
#285000
b0 P
b0 '
b0 =
b0 G
0&
b1 C
1*
#286000
0*
#287000
b11000000 P
b1000110 R
b10111111110000000000000100011000 (
b10111111110000000000000100011000 <
b10111111110000000000000100011000 F
1&
b1111 '
b1111 =
b1111 G
b10111111110000000000000100011100 2
b10111111110000000000000100011000 A
b0 C
1*
#288000
0*
#289000
b0 P
b0 '
b0 =
b0 G
0&
b1 C
1*
#290000
0*
