rtl/mips_cpu_bus_tb.vcd
$date
	Thu Dec 17 15:26:59 2020
$end
$version
	Icarus Verilog
$end
$timescale
	10ps
$end
$scope module mips_cpu_bus_tb $end
$var wire 1 ! waitrequest $end
$var wire 32 " writedata [31:0] $end
$var wire 1 # write $end
$var wire 32 $ register_v0 [31:0] $end
$var wire 32 % readdata [31:0] $end
$var wire 1 & read $end
$var wire 4 ' byteenable [3:0] $end
$var wire 32 ( address [31:0] $end
$var wire 1 ) active $end
$var reg 1 * clk $end
$var reg 1 + reset $end
$scope module cpuInst $end
$var wire 1 * clk $end
$var wire 32 , register_v0 [31:0] $end
$var wire 1 + reset $end
$var wire 1 ! waitrequest $end
$var wire 5 - shift [4:0] $end
$var wire 5 . rt [4:0] $end
$var wire 5 / rs [4:0] $end
$var wire 32 0 readdata [31:0] $end
$var wire 5 1 rd [4:0] $end
$var wire 32 2 pc_increment [31:0] $end
$var wire 64 3 mult_temp [63:0] $end
$var wire 6 4 instr_opcode [5:0] $end
$var wire 26 5 instr_index [25:0] $end
$var wire 16 6 instr_imm [15:0] $end
$var wire 6 7 instr_function [5:0] $end
$var wire 32 8 instr [31:0] $end
$var wire 2 9 alignment [1:0] $end
$var wire 32 : address_calc [31:0] $end
$var reg 32 ; HI [31:0] $end
$var reg 32 < LO [31:0] $end
$var reg 1 ) active $end
$var reg 32 = address [31:0] $end
$var reg 4 > byteenable [3:0] $end
$var reg 1 ? delay $end
$var reg 32 @ ir [31:0] $end
$var reg 1 A mem_access $end
$var reg 32 B pc [31:0] $end
$var reg 32 C pc_jmp [31:0] $end
$var reg 1 & read $end
$var reg 3 D state [2:0] $end
$var reg 1 # write $end
$var reg 32 E writedata [31:0] $end
$var integer 32 F i [31:0] $end
$upscope $end
$scope module ramInst $end
$var wire 32 G address [31:0] $end
$var wire 4 H byteenable [3:0] $end
$var wire 1 * clk $end
$var wire 8 I r_data0 [7:0] $end
$var wire 8 J r_data1 [7:0] $end
$var wire 8 K r_data2 [7:0] $end
$var wire 8 L r_data3 [7:0] $end
$var wire 1 & read $end
$var wire 1 ! waitrequest $end
$var wire 1 # write $end
$var wire 32 M writedata [31:0] $end
$var wire 8 N w_data3 [7:0] $end
$var wire 8 O w_data2 [7:0] $end
$var wire 8 P w_data1 [7:0] $end
$var wire 8 Q w_data0 [7:0] $end
$var wire 32 R r_data [31:0] $end
$var wire 32 S address_relative [31:0] $end
$var reg 32 T readdata [31:0] $end
$scope begin $unm_blk_102 $end
$var integer 32 U i [31:0] $end
$upscope $end
$upscope $end
$upscope $end
$enddefinitions $end
#0
$dumpvars
b1111111111111111 U
bx T
bx S
bx R
bx Q
bx P
bx O
bx N
bx M
bx L
bx K
bx J
bx I
bx H
bx G
b100000 F
bx E
b111 D
bx C
bx B
xA
bx @
0?
bx >
bx =
bx <
bx ;
bx :
bx 9
bx 8
bx 7
bx 6
bx 5
bx 4
b0 3
bx 2
bx 1
bx 0
bx /
bx .
bx -
b0 ,
0+
0*
0)
bx (
bx '
x&
bx %
b0 $
x#
bx "
0!
$end
#1000
1*
#2000
1+
0*
#3000
b0 L
b0 K
b0 J
b0 I
b0 R
b0 S
b10111111110000000000000000000000 (
b10111111110000000000000000000000 =
b10111111110000000000000000000000 G
0#
1&
b1111 '
b1111 >
b1111 H
b10111111110000000000000000000100 2
b10111111110000000000000000000000 B
1)
b0 D
b100000 F
1*
#4000
0+
0*
#5000
b0 N
b0 O
b0 P
b0 Q
b0 9
b0 4
b0 :
b0 /
b0 .
b0 1
b0 -
b0 7
b0 6
b0 5
b0 '
b0 >
b0 H
0&
b0 8
b1 D
b0 %
b0 0
b0 T
1*
#6000
0*
#7000
bx N
bx O
bx P
bx Q
b1 S
b10111111110000000000000000000100 (
b10111111110000000000000000000100 =
b10111111110000000000000000000100 G
1&
b1111 '
b1111 >
b1111 H
b10111111110000000000000000001000 2
b10111111110000000000000000000100 B
b0 D
b0 @
1*
#8000
0*
#9000
b0 N
b0 O
b0 P
b0 Q
b0 '
b0 >
b0 H
0&
b1 D
1*
#10000
0*
#11000
bx N
bx O
bx P
bx Q
b10 S
b10111111110000000000000000001000 (
b10111111110000000000000000001000 =
b10111111110000000000000000001000 G
1&
b1111 '
b1111 >
b1111 H
b10111111110000000000000000001100 2
b10111111110000000000000000001000 B
b0 D
1*
#12000
0*
#13000
b0 N
b0 O
b0 P
b0 Q
b0 '
b0 >
b0 H
0&
b1 D
1*
#14000
0*
#15000
bx N
bx O
bx P
bx Q
b11 S
b10111111110000000000000000001100 (
b10111111110000000000000000001100 =
b10111111110000000000000000001100 G
1&
b1111 '
b1111 >
b1111 H
b10111111110000000000000000010000 2
b10111111110000000000000000001100 B
b0 D
1*
#16000
0*
#17000
b0 N
b0 O
b0 P
b0 Q
b0 '
b0 >
b0 H
0&
b1 D
1*
#18000
0*
#19000
bx N
bx O
bx P
bx Q
b100 S
b10111111110000000000000000010000 (
b10111111110000000000000000010000 =
b10111111110000000000000000010000 G
1&
b1111 '
b1111 >
b1111 H
b10111111110000000000000000010100 2
b10111111110000000000000000010000 B
b0 D
1*
#20000
0*
#21000
b0 N
b0 O
b0 P
b0 Q
b0 '
b0 >
b0 H
0&
b1 D
1*
#22000
0*
#23000
bx N
bx O
bx P
bx Q
b101 S
b10111111110000000000000000010100 (
b10111111110000000000000000010100 =
b10111111110000000000000000010100 G
1&
b1111 '
b1111 >
b1111 H
b10111111110000000000000000011000 2
b10111111110000000000000000010100 B
b0 D
1*
#24000
0*
#25000
b0 N
b0 O
b0 P
b0 Q
b0 '
b0 >
b0 H
0&
b1 D
1*
#26000
0*
#27000
bx N
bx O
bx P
bx Q
b110 S
b10111111110000000000000000011000 (
b10111111110000000000000000011000 =
b10111111110000000000000000011000 G
1&
b1111 '
b1111 >
b1111 H
b10111111110000000000000000011100 2
b10111111110000000000000000011000 B
b0 D
1*
#28000
0*
#29000
b0 N
b0 O
b0 P
b0 Q
b0 '
b0 >
b0 H
0&
b1 D
1*
#30000
0*
#31000
bx N
bx O
bx P
bx Q
b111 S
b10111111110000000000000000011100 (
b10111111110000000000000000011100 =
b10111111110000000000000000011100 G
1&
b1111 '
b1111 >
b1111 H
b10111111110000000000000000100000 2
b10111111110000000000000000011100 B
b0 D
1*
#32000
0*
#33000
b0 N
b0 O
b0 P
b0 Q
b0 '
b0 >
b0 H
0&
b1 D
1*
#34000
0*
#35000
bx N
bx O
bx P
bx Q
b1000 S
b10111111110000000000000000100000 (
b10111111110000000000000000100000 =
b10111111110000000000000000100000 G
1&
b1111 '
b1111 >
b1111 H
b10111111110000000000000000100100 2
b10111111110000000000000000100000 B
b0 D
1*
#36000
0*
#37000
b0 N
b0 O
b0 P
b0 Q
b0 '
b0 >
b0 H
0&
b1 D
1*
#38000
0*
#39000
bx N
bx O
bx P
bx Q
b1001 S
b10111111110000000000000000100100 (
b10111111110000000000000000100100 =
b10111111110000000000000000100100 G
1&
b1111 '
b1111 >
b1111 H
b10111111110000000000000000101000 2
b10111111110000000000000000100100 B
b0 D
1*
#40000
0*
#41000
b0 N
b0 O
b0 P
b0 Q
b0 '
b0 >
b0 H
0&
b1 D
1*
#42000
0*
#43000
bx N
bx O
bx P
bx Q
b1010 S
b10111111110000000000000000101000 (
b10111111110000000000000000101000 =
b10111111110000000000000000101000 G
1&
b1111 '
b1111 >
b1111 H
b10111111110000000000000000101100 2
b10111111110000000000000000101000 B
b0 D
1*
#44000
0*
#45000
b0 N
b0 O
b0 P
b0 Q
b0 '
b0 >
b0 H
0&
b1 D
1*
#46000
0*
#47000
bx N
bx O
bx P
bx Q
b1011 S
b10111111110000000000000000101100 (
b10111111110000000000000000101100 =
b10111111110000000000000000101100 G
1&
b1111 '
b1111 >
b1111 H
b10111111110000000000000000110000 2
b10111111110000000000000000101100 B
b0 D
1*
#48000
0*
#49000
b0 N
b0 O
b0 P
b0 Q
b0 '
b0 >
b0 H
0&
b1 D
1*
#50000
0*
#51000
bx N
bx O
bx P
bx Q
b1100 S
b10111111110000000000000000110000 (
b10111111110000000000000000110000 =
b10111111110000000000000000110000 G
1&
b1111 '
b1111 >
b1111 H
b10111111110000000000000000110100 2
b10111111110000000000000000110000 B
b0 D
1*
#52000
0*
#53000
b0 N
b0 O
b0 P
b0 Q
b0 '
b0 >
b0 H
0&
b1 D
1*
#54000
0*
#55000
bx N
bx O
bx P
bx Q
b1101 S
b10111111110000000000000000110100 (
b10111111110000000000000000110100 =
b10111111110000000000000000110100 G
1&
b1111 '
b1111 >
b1111 H
b10111111110000000000000000111000 2
b10111111110000000000000000110100 B
b0 D
1*
#56000
0*
#57000
b0 N
b0 O
b0 P
b0 Q
b0 '
b0 >
b0 H
0&
b1 D
1*
#58000
0*
#59000
bx N
bx O
bx P
bx Q
b1110 S
b10111111110000000000000000111000 (
b10111111110000000000000000111000 =
b10111111110000000000000000111000 G
1&
b1111 '
b1111 >
b1111 H
b10111111110000000000000000111100 2
b10111111110000000000000000111000 B
b0 D
1*
#60000
0*
#61000
b0 N
b0 O
b0 P
b0 Q
b0 '
b0 >
b0 H
0&
b1 D
1*
#62000
0*
#63000
bx N
bx O
bx P
bx Q
b1111 S
b10111111110000000000000000111100 (
b10111111110000000000000000111100 =
b10111111110000000000000000111100 G
1&
b1111 '
b1111 >
b1111 H
b10111111110000000000000001000000 2
b10111111110000000000000000111100 B
b0 D
1*
#64000
0*
#65000
b0 N
b0 O
b0 P
b0 Q
b0 '
b0 >
b0 H
0&
b1 D
1*
#66000
0*
#67000
bx N
bx O
bx P
bx Q
b10000 S
b10111111110000000000000001000000 (
b10111111110000000000000001000000 =
b10111111110000000000000001000000 G
1&
b1111 '
b1111 >
b1111 H
b10111111110000000000000001000100 2
b10111111110000000000000001000000 B
b0 D
1*
#68000
0*
#69000
b0 N
b0 O
b0 P
b0 Q
b0 '
b0 >
b0 H
0&
b1 D
1*
#70000
0*
#71000
bx N
bx O
bx P
bx Q
b10001 S
b10111111110000000000000001000100 (
b10111111110000000000000001000100 =
b10111111110000000000000001000100 G
1&
b1111 '
b1111 >
b1111 H
b10111111110000000000000001001000 2
b10111111110000000000000001000100 B
b0 D
1*
#72000
0*
#73000
b0 N
b0 O
b0 P
b0 Q
b0 '
b0 >
b0 H
0&
b1 D
1*
#74000
0*
#75000
bx N
bx O
bx P
bx Q
b10010 S
b10111111110000000000000001001000 (
b10111111110000000000000001001000 =
b10111111110000000000000001001000 G
1&
b1111 '
b1111 >
b1111 H
b10111111110000000000000001001100 2
b10111111110000000000000001001000 B
b0 D
1*
#76000
0*
#77000
b0 N
b0 O
b0 P
b0 Q
b0 '
b0 >
b0 H
0&
b1 D
1*
#78000
0*
#79000
bx N
bx O
bx P
bx Q
b10011 S
b10111111110000000000000001001100 (
b10111111110000000000000001001100 =
b10111111110000000000000001001100 G
1&
b1111 '
b1111 >
b1111 H
b10111111110000000000000001010000 2
b10111111110000000000000001001100 B
b0 D
1*
#80000
0*
#81000
b0 N
b0 O
b0 P
b0 Q
b0 '
b0 >
b0 H
0&
b1 D
1*
#82000
0*
#83000
bx N
bx O
bx P
bx Q
b10100 S
b10111111110000000000000001010000 (
b10111111110000000000000001010000 =
b10111111110000000000000001010000 G
1&
b1111 '
b1111 >
b1111 H
b10111111110000000000000001010100 2
b10111111110000000000000001010000 B
b0 D
1*
#84000
0*
#85000
b0 N
b0 O
b0 P
b0 Q
b0 '
b0 >
b0 H
0&
b1 D
1*
#86000
0*
#87000
bx N
bx O
bx P
bx Q
b10101 S
b10111111110000000000000001010100 (
b10111111110000000000000001010100 =
b10111111110000000000000001010100 G
1&
b1111 '
b1111 >
b1111 H
b10111111110000000000000001011000 2
b10111111110000000000000001010100 B
b0 D
1*
#88000
0*
#89000
b0 N
b0 O
b0 P
b0 Q
b0 '
b0 >
b0 H
0&
b1 D
1*
#90000
0*
#91000
bx N
bx O
bx P
bx Q
b10110 S
b10111111110000000000000001011000 (
b10111111110000000000000001011000 =
b10111111110000000000000001011000 G
1&
b1111 '
b1111 >
b1111 H
b10111111110000000000000001011100 2
b10111111110000000000000001011000 B
b0 D
1*
#92000
0*
#93000
b0 N
b0 O
b0 P
b0 Q
b0 '
b0 >
b0 H
0&
b1 D
1*
#94000
0*
#95000
bx N
bx O
bx P
bx Q
b10111 S
b10111111110000000000000001011100 (
b10111111110000000000000001011100 =
b10111111110000000000000001011100 G
1&
b1111 '
b1111 >
b1111 H
b10111111110000000000000001100000 2
b10111111110000000000000001011100 B
b0 D
1*
#96000
0*
#97000
b0 N
b0 O
b0 P
b0 Q
b0 '
b0 >
b0 H
0&
b1 D
1*
#98000
0*
#99000
bx N
bx O
bx P
bx Q
b11000 S
b10111111110000000000000001100000 (
b10111111110000000000000001100000 =
b10111111110000000000000001100000 G
1&
b1111 '
b1111 >
b1111 H
b10111111110000000000000001100100 2
b10111111110000000000000001100000 B
b0 D
1*
#100000
0*
#101000
b0 N
b0 O
b0 P
b0 Q
b0 '
b0 >
b0 H
0&
b1 D
1*
#102000
0*
#103000
bx N
bx O
bx P
bx Q
b11001 S
b10111111110000000000000001100100 (
b10111111110000000000000001100100 =
b10111111110000000000000001100100 G
1&
b1111 '
b1111 >
b1111 H
b10111111110000000000000001101000 2
b10111111110000000000000001100100 B
b0 D
1*
#104000
0*
#105000
b0 N
b0 O
b0 P
b0 Q
b0 '
b0 >
b0 H
0&
b1 D
1*
#106000
0*
#107000
bx N
bx O
bx P
bx Q
b11010 S
b10111111110000000000000001101000 (
b10111111110000000000000001101000 =
b10111111110000000000000001101000 G
1&
b1111 '
b1111 >
b1111 H
b10111111110000000000000001101100 2
b10111111110000000000000001101000 B
b0 D
1*
#108000
0*
#109000
b0 N
b0 O
b0 P
b0 Q
b0 '
b0 >
b0 H
0&
b1 D
1*
#110000
0*
#111000
bx N
bx O
bx P
bx Q
b11011 S
b10111111110000000000000001101100 (
b10111111110000000000000001101100 =
b10111111110000000000000001101100 G
1&
b1111 '
b1111 >
b1111 H
b10111111110000000000000001110000 2
b10111111110000000000000001101100 B
b0 D
1*
#112000
0*
#113000
b0 N
b0 O
b0 P
b0 Q
b0 '
b0 >
b0 H
0&
b1 D
1*
#114000
0*
#115000
bx N
bx O
bx P
bx Q
b11100 S
b10111111110000000000000001110000 (
b10111111110000000000000001110000 =
b10111111110000000000000001110000 G
1&
b1111 '
b1111 >
b1111 H
b10111111110000000000000001110100 2
b10111111110000000000000001110000 B
b0 D
1*
#116000
0*
#117000
b0 N
b0 O
b0 P
b0 Q
b0 '
b0 >
b0 H
0&
b1 D
1*
#118000
0*
#119000
bx N
bx O
bx P
bx Q
b11101 S
b10111111110000000000000001110100 (
b10111111110000000000000001110100 =
b10111111110000000000000001110100 G
1&
b1111 '
b1111 >
b1111 H
b10111111110000000000000001111000 2
b10111111110000000000000001110100 B
b0 D
1*
#120000
0*
#121000
b0 N
b0 O
b0 P
b0 Q
b0 '
b0 >
b0 H
0&
b1 D
1*
#122000
0*
#123000
bx N
bx O
bx P
bx Q
b11110 S
b10111111110000000000000001111000 (
b10111111110000000000000001111000 =
b10111111110000000000000001111000 G
1&
b1111 '
b1111 >
b1111 H
b10111111110000000000000001111100 2
b10111111110000000000000001111000 B
b0 D
1*
#124000
0*
#125000
b0 N
b0 O
b0 P
b0 Q
b0 '
b0 >
b0 H
0&
b1 D
1*
#126000
0*
#127000
bx N
bx O
bx P
bx Q
b11111 S
b10111111110000000000000001111100 (
b10111111110000000000000001111100 =
b10111111110000000000000001111100 G
1&
b1111 '
b1111 >
b1111 H
b10111111110000000000000010000000 2
b10111111110000000000000001111100 B
b0 D
1*
#128000
0*
#129000
b0 N
b0 O
b0 P
b0 Q
b0 '
b0 >
b0 H
0&
b1 D
1*
#130000
0*
#131000
bx N
bx O
bx P
bx Q
b100000 S
b10111111110000000000000010000000 (
b10111111110000000000000010000000 =
b10111111110000000000000010000000 G
1&
b1111 '
b1111 >
b1111 H
b10111111110000000000000010000100 2
b10111111110000000000000010000000 B
b0 D
1*
#132000
0*
#133000
b0 N
b0 O
b0 P
b0 Q
b0 '
b0 >
b0 H
0&
b1 D
1*
#134000
0*
#135000
bx N
bx O
bx P
bx Q
b100001 S
b10111111110000000000000010000100 (
b10111111110000000000000010000100 =
b10111111110000000000000010000100 G
1&
b1111 '
b1111 >
b1111 H
b10111111110000000000000010001000 2
b10111111110000000000000010000100 B
b0 D
1*
#136000
0*
#137000
b0 N
b0 O
b0 P
b0 Q
b0 '
b0 >
b0 H
0&
b1 D
1*
#138000
0*
#139000
bx N
bx O
bx P
bx Q
b100010 S
b10111111110000000000000010001000 (
b10111111110000000000000010001000 =
b10111111110000000000000010001000 G
1&
b1111 '
b1111 >
b1111 H
b10111111110000000000000010001100 2
b10111111110000000000000010001000 B
b0 D
1*
#140000
0*
#141000
b0 N
b0 O
b0 P
b0 Q
b0 '
b0 >
b0 H
0&
b1 D
1*
#142000
0*
#143000
bx N
bx O
bx P
bx Q
b100011 S
b10111111110000000000000010001100 (
b10111111110000000000000010001100 =
b10111111110000000000000010001100 G
1&
b1111 '
b1111 >
b1111 H
b10111111110000000000000010010000 2
b10111111110000000000000010001100 B
b0 D
1*
#144000
0*
#145000
b0 N
b0 O
b0 P
b0 Q
b0 '
b0 >
b0 H
0&
b1 D
1*
#146000
0*
#147000
bx N
bx O
bx P
bx Q
b100100 S
b10111111110000000000000010010000 (
b10111111110000000000000010010000 =
b10111111110000000000000010010000 G
1&
b1111 '
b1111 >
b1111 H
b10111111110000000000000010010100 2
b10111111110000000000000010010000 B
b0 D
1*
#148000
0*
#149000
b0 N
b0 O
b0 P
b0 Q
b0 '
b0 >
b0 H
0&
b1 D
1*
#150000
0*
#151000
bx N
bx O
bx P
bx Q
b100101 S
b10111111110000000000000010010100 (
b10111111110000000000000010010100 =
b10111111110000000000000010010100 G
1&
b1111 '
b1111 >
b1111 H
b10111111110000000000000010011000 2
b10111111110000000000000010010100 B
b0 D
1*
#152000
0*
#153000
b0 N
b0 O
b0 P
b0 Q
b0 '
b0 >
b0 H
0&
b1 D
1*
#154000
0*
#155000
bx N
bx O
bx P
bx Q
b100110 S
b10111111110000000000000010011000 (
b10111111110000000000000010011000 =
b10111111110000000000000010011000 G
1&
b1111 '
b1111 >
b1111 H
b10111111110000000000000010011100 2
b10111111110000000000000010011000 B
b0 D
1*
#156000
0*
#157000
b0 N
b0 O
b0 P
b0 Q
b0 '
b0 >
b0 H
0&
b1 D
1*
#158000
0*
#159000
bx N
bx O
bx P
bx Q
b100111 S
b10111111110000000000000010011100 (
b10111111110000000000000010011100 =
b10111111110000000000000010011100 G
1&
b1111 '
b1111 >
b1111 H
b10111111110000000000000010100000 2
b10111111110000000000000010011100 B
b0 D
1*
#160000
0*
#161000
b0 N
b0 O
b0 P
b0 Q
b0 '
b0 >
b0 H
0&
b1 D
1*
#162000
0*
#163000
bx N
bx O
bx P
bx Q
b101000 S
b10111111110000000000000010100000 (
b10111111110000000000000010100000 =
b10111111110000000000000010100000 G
1&
b1111 '
b1111 >
b1111 H
b10111111110000000000000010100100 2
b10111111110000000000000010100000 B
b0 D
1*
#164000
0*
#165000
b0 N
b0 O
b0 P
b0 Q
b0 '
b0 >
b0 H
0&
b1 D
1*
#166000
0*
#167000
bx N
bx O
bx P
bx Q
b101001 S
b10111111110000000000000010100100 (
b10111111110000000000000010100100 =
b10111111110000000000000010100100 G
1&
b1111 '
b1111 >
b1111 H
b10111111110000000000000010101000 2
b10111111110000000000000010100100 B
b0 D
1*
#168000
0*
#169000
b0 N
b0 O
b0 P
b0 Q
b0 '
b0 >
b0 H
0&
b1 D
1*
#170000
0*
#171000
bx N
bx O
bx P
bx Q
b101010 S
b10111111110000000000000010101000 (
b10111111110000000000000010101000 =
b10111111110000000000000010101000 G
1&
b1111 '
b1111 >
b1111 H
b10111111110000000000000010101100 2
b10111111110000000000000010101000 B
b0 D
1*
#172000
0*
#173000
b0 N
b0 O
b0 P
b0 Q
b0 '
b0 >
b0 H
0&
b1 D
1*
#174000
0*
#175000
bx N
bx O
bx P
bx Q
b101011 S
b10111111110000000000000010101100 (
b10111111110000000000000010101100 =
b10111111110000000000000010101100 G
1&
b1111 '
b1111 >
b1111 H
b10111111110000000000000010110000 2
b10111111110000000000000010101100 B
b0 D
1*
#176000
0*
#177000
b0 N
b0 O
b0 P
b0 Q
b0 '
b0 >
b0 H
0&
b1 D
1*
#178000
0*
#179000
bx N
bx O
bx P
bx Q
b101100 S
b10111111110000000000000010110000 (
b10111111110000000000000010110000 =
b10111111110000000000000010110000 G
1&
b1111 '
b1111 >
b1111 H
b10111111110000000000000010110100 2
b10111111110000000000000010110000 B
b0 D
1*
#180000
0*
#181000
b0 N
b0 O
b0 P
b0 Q
b0 '
b0 >
b0 H
0&
b1 D
1*
#182000
0*
#183000
bx N
bx O
bx P
bx Q
b101101 S
b10111111110000000000000010110100 (
b10111111110000000000000010110100 =
b10111111110000000000000010110100 G
1&
b1111 '
b1111 >
b1111 H
b10111111110000000000000010111000 2
b10111111110000000000000010110100 B
b0 D
1*
#184000
0*
#185000
b0 N
b0 O
b0 P
b0 Q
b0 '
b0 >
b0 H
0&
b1 D
1*
#186000
0*
#187000
bx N
bx O
bx P
bx Q
b101110 S
b10111111110000000000000010111000 (
b10111111110000000000000010111000 =
b10111111110000000000000010111000 G
1&
b1111 '
b1111 >
b1111 H
b10111111110000000000000010111100 2
b10111111110000000000000010111000 B
b0 D
1*
#188000
0*
#189000
b0 N
b0 O
b0 P
b0 Q
b0 '
b0 >
b0 H
0&
b1 D
1*
#190000
0*
#191000
bx N
bx O
bx P
bx Q
b101111 S
b10111111110000000000000010111100 (
b10111111110000000000000010111100 =
b10111111110000000000000010111100 G
1&
b1111 '
b1111 >
b1111 H
b10111111110000000000000011000000 2
b10111111110000000000000010111100 B
b0 D
1*
#192000
0*
#193000
b0 N
b0 O
b0 P
b0 Q
b0 '
b0 >
b0 H
0&
b1 D
1*
#194000
0*
#195000
bx N
bx O
bx P
bx Q
b110000 S
b10111111110000000000000011000000 (
b10111111110000000000000011000000 =
b10111111110000000000000011000000 G
1&
b1111 '
b1111 >
b1111 H
b10111111110000000000000011000100 2
b10111111110000000000000011000000 B
b0 D
1*
#196000
0*
#197000
b0 N
b0 O
b0 P
b0 Q
b0 '
b0 >
b0 H
0&
b1 D
1*
#198000
0*
#199000
bx N
bx O
bx P
bx Q
b110001 S
b10111111110000000000000011000100 (
b10111111110000000000000011000100 =
b10111111110000000000000011000100 G
1&
b1111 '
b1111 >
b1111 H
b10111111110000000000000011001000 2
b10111111110000000000000011000100 B
b0 D
1*
#200000
0*
#201000
b0 N
b0 O
b0 P
b0 Q
b0 '
b0 >
b0 H
0&
b1 D
1*
#202000
0*
#203000
bx N
bx O
bx P
bx Q
b110010 S
b10111111110000000000000011001000 (
b10111111110000000000000011001000 =
b10111111110000000000000011001000 G
1&
b1111 '
b1111 >
b1111 H
b10111111110000000000000011001100 2
b10111111110000000000000011001000 B
b0 D
1*
#204000
0*
#205000
b0 N
b0 O
b0 P
b0 Q
b0 '
b0 >
b0 H
0&
b1 D
1*
#206000
0*
#207000
bx N
bx O
bx P
bx Q
b110011 S
b10111111110000000000000011001100 (
b10111111110000000000000011001100 =
b10111111110000000000000011001100 G
1&
b1111 '
b1111 >
b1111 H
b10111111110000000000000011010000 2
b10111111110000000000000011001100 B
b0 D
1*
#208000
0*
#209000
b0 N
b0 O
b0 P
b0 Q
b0 '
b0 >
b0 H
0&
b1 D
1*
#210000
0*
#211000
bx N
bx O
bx P
bx Q
b110100 S
b10111111110000000000000011010000 (
b10111111110000000000000011010000 =
b10111111110000000000000011010000 G
1&
b1111 '
b1111 >
b1111 H
b10111111110000000000000011010100 2
b10111111110000000000000011010000 B
b0 D
1*
#212000
0*
#213000
b0 N
b0 O
b0 P
b0 Q
b0 '
b0 >
b0 H
0&
b1 D
1*
#214000
0*
#215000
bx N
bx O
bx P
bx Q
b110101 S
b10111111110000000000000011010100 (
b10111111110000000000000011010100 =
b10111111110000000000000011010100 G
1&
b1111 '
b1111 >
b1111 H
b10111111110000000000000011011000 2
b10111111110000000000000011010100 B
b0 D
1*
#216000
0*
#217000
b0 N
b0 O
b0 P
b0 Q
b0 '
b0 >
b0 H
0&
b1 D
1*
#218000
0*
#219000
bx N
bx O
bx P
bx Q
b110110 S
b10111111110000000000000011011000 (
b10111111110000000000000011011000 =
b10111111110000000000000011011000 G
1&
b1111 '
b1111 >
b1111 H
b10111111110000000000000011011100 2
b10111111110000000000000011011000 B
b0 D
1*
#220000
0*
#221000
b0 N
b0 O
b0 P
b0 Q
b0 '
b0 >
b0 H
0&
b1 D
1*
#222000
0*
#223000
bx N
bx O
bx P
bx Q
b110111 S
b10111111110000000000000011011100 (
b10111111110000000000000011011100 =
b10111111110000000000000011011100 G
1&
b1111 '
b1111 >
b1111 H
b10111111110000000000000011100000 2
b10111111110000000000000011011100 B
b0 D
1*
#224000
0*
#225000
b0 N
b0 O
b0 P
b0 Q
b0 '
b0 >
b0 H
0&
b1 D
1*
#226000
0*
#227000
bx N
bx O
bx P
bx Q
b111000 S
b10111111110000000000000011100000 (
b10111111110000000000000011100000 =
b10111111110000000000000011100000 G
1&
b1111 '
b1111 >
b1111 H
b10111111110000000000000011100100 2
b10111111110000000000000011100000 B
b0 D
1*
#228000
0*
#229000
b0 N
b0 O
b0 P
b0 Q
b0 '
b0 >
b0 H
0&
b1 D
1*
#230000
0*
#231000
bx N
bx O
bx P
bx Q
b111001 S
b10111111110000000000000011100100 (
b10111111110000000000000011100100 =
b10111111110000000000000011100100 G
1&
b1111 '
b1111 >
b1111 H
b10111111110000000000000011101000 2
b10111111110000000000000011100100 B
b0 D
1*
#232000
0*
#233000
b0 N
b0 O
b0 P
b0 Q
b0 '
b0 >
b0 H
0&
b1 D
1*
#234000
0*
#235000
bx N
bx O
bx P
bx Q
b111010 S
b10111111110000000000000011101000 (
b10111111110000000000000011101000 =
b10111111110000000000000011101000 G
1&
b1111 '
b1111 >
b1111 H
b10111111110000000000000011101100 2
b10111111110000000000000011101000 B
b0 D
1*
#236000
0*
#237000
b0 N
b0 O
b0 P
b0 Q
b0 '
b0 >
b0 H
0&
b1 D
1*
#238000
0*
#239000
bx N
bx O
bx P
bx Q
b111011 S
b10111111110000000000000011101100 (
b10111111110000000000000011101100 =
b10111111110000000000000011101100 G
1&
b1111 '
b1111 >
b1111 H
b10111111110000000000000011110000 2
b10111111110000000000000011101100 B
b0 D
1*
#240000
0*
#241000
b0 N
b0 O
b0 P
b0 Q
b0 '
b0 >
b0 H
0&
b1 D
1*
#242000
0*
#243000
bx N
bx O
bx P
bx Q
b111100 S
b10111111110000000000000011110000 (
b10111111110000000000000011110000 =
b10111111110000000000000011110000 G
1&
b1111 '
b1111 >
b1111 H
b10111111110000000000000011110100 2
b10111111110000000000000011110000 B
b0 D
1*
#244000
0*
#245000
b0 N
b0 O
b0 P
b0 Q
b0 '
b0 >
b0 H
0&
b1 D
1*
#246000
0*
#247000
bx N
bx O
bx P
bx Q
b111101 S
b10111111110000000000000011110100 (
b10111111110000000000000011110100 =
b10111111110000000000000011110100 G
1&
b1111 '
b1111 >
b1111 H
b10111111110000000000000011111000 2
b10111111110000000000000011110100 B
b0 D
1*
#248000
0*
#249000
b0 N
b0 O
b0 P
b0 Q
b0 '
b0 >
b0 H
0&
b1 D
1*
#250000
0*
#251000
bx N
bx O
bx P
bx Q
b111110 S
b10111111110000000000000011111000 (
b10111111110000000000000011111000 =
b10111111110000000000000011111000 G
1&
b1111 '
b1111 >
b1111 H
b10111111110000000000000011111100 2
b10111111110000000000000011111000 B
b0 D
1*
#252000
0*
#253000
b0 N
b0 O
b0 P
b0 Q
b0 '
b0 >
b0 H
0&
b1 D
1*
#254000
0*
#255000
bx N
bx O
bx P
bx Q
b111111 S
b10111111110000000000000011111100 (
b10111111110000000000000011111100 =
b10111111110000000000000011111100 G
1&
b1111 '
b1111 >
b1111 H
b10111111110000000000000100000000 2
b10111111110000000000000011111100 B
b0 D
1*
#256000
0*
#257000
b0 N
b0 O
b0 P
b0 Q
b0 '
b0 >
b0 H
0&
b1 D
1*
#258000
0*
#259000
bx N
bx O
bx P
bx Q
b1000000 S
b10111111110000000000000100000000 (
b10111111110000000000000100000000 =
b10111111110000000000000100000000 G
1&
b1111 '
b1111 >
b1111 H
b10111111110000000000000100000100 2
b10111111110000000000000100000000 B
b0 D
1*
#260000
0*
#261000
b0 N
b0 O
b0 P
b0 Q
b0 '
b0 >
b0 H
0&
b1 D
1*
#262000
0*
#263000
bx N
bx O
bx P
bx Q
b1000001 S
b10111111110000000000000100000100 (
b10111111110000000000000100000100 =
b10111111110000000000000100000100 G
1&
b1111 '
b1111 >
b1111 H
b10111111110000000000000100001000 2
b10111111110000000000000100000100 B
b0 D
1*
#264000
0*
#265000
b0 N
b0 O
b0 P
b0 Q
b0 '
b0 >
b0 H
0&
b1 D
1*
#266000
0*
#267000
bx N
bx O
bx P
bx Q
b1000010 S
b10111111110000000000000100001000 (
b10111111110000000000000100001000 =
b10111111110000000000000100001000 G
1&
b1111 '
b1111 >
b1111 H
b10111111110000000000000100001100 2
b10111111110000000000000100001000 B
b0 D
1*
#268000
0*
#269000
b0 N
b0 O
b0 P
b0 Q
b0 '
b0 >
b0 H
0&
b1 D
1*
#270000
0*
#271000
bx N
bx O
bx P
bx Q
b1000011 S
b10111111110000000000000100001100 (
b10111111110000000000000100001100 =
b10111111110000000000000100001100 G
1&
b1111 '
b1111 >
b1111 H
b10111111110000000000000100010000 2
b10111111110000000000000100001100 B
b0 D
1*
#272000
0*
#273000
b0 N
b0 O
b0 P
b0 Q
b0 '
b0 >
b0 H
0&
b1 D
1*
#274000
0*
